{
  "project_info": {
    "project_number": "203644954485",
    "firebase_url": "https://petni-a3ae9.firebaseio.com",
    "project_id": "petni-a3ae9",
    "storage_bucket": "petni-a3ae9.appspot.com"
  },
  "client": [
    {
      "client_info": {
        "mobilesdk_app_id": "1:203644954485:android:4a4dd5362fcbbcf0",
        "android_client_info": {
          "package_name": "com.petni.clientapp"
        }
      },
      "oauth_client": [
        {
          "client_id": "203644954485-vp87ta78sl156qprcajes9jlvbvb12hm.apps.googleusercontent.com",
          "client_type": 3
        },
        {
          "client_id": "203644954485-vp87ta78sl156qprcajes9jlvbvb12hm.apps.googleusercontent.com",
          "client_type": 3
        }
      ],
      "api_key": [
        {
          "current_key": "AIzaSyDuQuyl92ZT_92194o-FXoA5i-muEc5p7A"
        }
      ],
      "services": {
        "analytics_service": {
          "status": 1
        },
        "appinvite_service": {
          "status": 1,
          "other_platform_oauth_client": []
        },
        "ads_service": {
          "status": 2
        }
      }
    }
  ],
  "configuration_version": "1"
}